
 #FNO 80000 ------- MF Logo ------- 
Generalization_Error = [ 5.81e-04]
MAE_Test = [ 6.51e-04]
Assembly_Error = [ 1.52e-02]
MF_Predictor_Error = [ 1.58e-02]
Time = [ 7.94e+02]

 #FNO 80000 ------- MF Logo ------- 
Generalization_Error = [ 5.81e-04]
MAE_Test = [ 6.51e-04]
Assembly_Error = [ 4.74e-03]
MF_Predictor_Error = [ 5.39e-03]
Time = [ 2.22e+03]
